{
    "sets": {
        "Thone of Eldraine": "eld.csv"

    },
    "precons": {
        "Game Nights - 2018": "gnt-2018.csv",
        "Planechase Anthology": "pca.csv",
        "Commander 2015 - Plunder the Graves": "c15-plunderthegraves.csv",
        "Commander 2017 - Vampiric Bloodlust": "c17-vampiricbloodlust.csv",
        "Commander 2018 - Adaptive Enchantment": "c18-adaptiveenchantment.csv",
        "Commander 2019 - Faceless Menace": "c19-facelessmenace.csv",
        "Commander 2019 - Merciless Rage": "c19-mercilessrage.csv",
        "Commander 2019 - Mystic Intellect": "c19-mysticintellect.csv",
        "Commander 2019 - Primal Genesis": "c19-primalgenesis.csv",
        "Commander 2020 - Arcane Maelstrom": "c20-arcanemaelstrom.csv",
        "Commander 2020 - Enhanced Evolution": "c20-enhancedevolution.csv",
        "Commander 2020 - Ruthless Regiment": "c20-ruthlessregiment.csv",
        "Commander 2020 - Symbiotic Swarm": "c20-symbioticswarm.csv",
        "Commander 2020 - Timeless Wisdom": "c20-timelesswisdom.csv",
        "Challenger 2019 - Lightning Agro": "q02-lightningagro.csv",
        "Challenger 2019 - United Assault": "q02-unitedassault.csv",
        "Throne of Eldraine - Plainswalker - Oko, The Trickster": "eld-oko.csv",
        "Throne of Eldraine - Plainswalker - Rowan, Fearless Sparkmage": "eld-rowan.csv",
        "Theros Beyond Death - Plainswalker - Ashiok, Sculptor of Fears": "thb-ashiok.csv",
        "Theros Beyond Death - Plainswalker - Elspeth, Undaunted Hero": "thb-elspeth.csv",
        "Throne of Eldraine - Brawl - Faerie Schemes": "eld-brawl-faerie.csv",
        "Throne of Eldraine - Brawl - Knights' Charge": "eld-brawl-knights.csv",
        "Throne of Eldraine - Brawl - Savage Hunger": "eld-brawl-savage.csv",
        "Throne of Eldraine - Brawl - Wild Bounty": "eld-brawl-wild.csv"
    }
}
